{
	"id": "1f2acfc7-229a-4223-83e5-4fe32e4706e7",
	"name": "Petstore environment",
	"values": [
		{
			"key": "baseUrl",
			"value": "https://petstore.swagger.io/v2",
			"enabled": true
		}
	],
	"_postman_variable_scope": "environment",
	"_postman_exported_at": "2020-10-20T18:29:33.955Z",
	"_postman_exported_using": "Postman/7.34.0"
}